<svg width="107" height="114" viewBox="0 0 107 114" fill="none" xmlns="http://www.w3.org/2000/svg">
  <path fill-rule="evenodd" clip-rule="evenodd" d="M86.2915 58.2634L54.0005 91.1957C53.8685 91.3277 53.6422 91.3277 53.5101 91.1957L20.6911 57.7542C20.5968 57.641 20.5779 57.4901 20.6534 57.377L30.8763 41.8916C30.9706 41.7596 31.1215 41.703 31.2724 41.7596C38.0248 44.3814 45.5317 45.8337 53.4158 45.8337C61.2999 45.8337 69.1652 44.3059 76.0308 41.571C76.1817 41.5144 76.3514 41.571 76.4457 41.703L86.348 57.8673C86.4235 57.9805 86.4046 58.1314 86.3103 58.2446M106.53 0.52832H91.1577C90.9691 0.52832 90.8182 0.679213 90.8182 0.848966C90.6108 17.2585 73.9183 30.537 53.4347 30.537C32.9511 30.537 16.2586 17.2396 16.0512 0.848966C16.0512 0.679213 15.9003 0.52832 15.7116 0.52832H0.339508C0.150893 0.52832 0 0.679213 0 0.848966C0.113169 13.7691 6.63925 25.4255 17.0131 33.6492C17.1451 33.7435 17.1828 33.9321 17.0885 34.0641L0.509262 59.2065C0.433816 59.3385 0.452675 59.4894 0.546982 59.6026L53.5479 113.603C53.6799 113.735 53.9062 113.735 54.0383 113.603L106.209 60.3948C106.304 60.2816 106.322 60.1307 106.247 60.0176L90.1769 33.7623C90.1015 33.6303 90.1204 33.4605 90.2524 33.3474C100.4 25.1615 106.775 13.6371 106.888 0.867828C106.888 0.679213 106.737 0.547182 106.549 0.547182" fill="white"/>
</svg>
